^C:\USERS\JUSTIN\SOURCE\REPOS\JDR.SIMPLECALC\JDR.SIMPLECALC\MAIN.CPP
C:\USERS\JUSTIN\SOURCE\REPOS\JDR.SIMPLECALC\JDR.SIMPLECALC\DEBUG\VC142.PDB
C:\USERS\JUSTIN\SOURCE\REPOS\JDR.SIMPLECALC\JDR.SIMPLECALC\DEBUG\VC142.IDB
C:\USERS\JUSTIN\SOURCE\REPOS\JDR.SIMPLECALC\JDR.SIMPLECALC\DEBUG\MAIN.OBJ
^C:\USERS\JUSTIN\SOURCE\REPOS\SIMPLE-CALCULATOR\JDR.SIMPLECALC\MAIN.CPP
C:\USERS\JUSTIN\SOURCE\REPOS\SIMPLE-CALCULATOR\JDR.SIMPLECALC\DEBUG\VC142.PDB
C:\USERS\JUSTIN\SOURCE\REPOS\SIMPLE-CALCULATOR\JDR.SIMPLECALC\DEBUG\VC142.IDB
C:\USERS\JUSTIN\SOURCE\REPOS\SIMPLE-CALCULATOR\JDR.SIMPLECALC\DEBUG\MAIN.OBJ
